<?xml version="1.0" encoding="utf-8"?>
<!-- Generator: Adobe Illustrator 12.0.0, SVG Export Plug-In . SVG Version: 6.00 Build 51448)  -->
<!DOCTYPE svg PUBLIC "-//W3C//DTD SVG 1.1//EN" "http://www.w3.org/Graphics/SVG/1.1/DTD/svg11.dtd" [
	<!ENTITY ns_svg "http://www.w3.org/2000/svg">
	<!ENTITY ns_xlink "http://www.w3.org/1999/xlink">
]>
<svg  version="1.1" id="Layer_1" xmlns="&ns_svg;" xmlns:xlink="&ns_xlink;" width="22.127" height="14.125"
	 viewBox="0 0 22.127 14.125" overflow="visible" enable-background="new 0 0 22.127 14.125" xml:space="preserve">
<path fill="#CDCDCD" d="M11.106,0C4.993,0,0.349,6.36,0.304,6.422L0.006,6.858C-0.037,6.93,0.152,7.42,0.152,7.42l0.049,0.127
	l0.081,0.109c0.195,0.266,4.855,6.469,10.825,6.469c5.69,0,11.005-6.051,11.021-7.049C22.112,6.051,16.797,0,11.106,0z
	 M11.106,12.125c-4.018,0-7.531-3.654-8.754-5.088C3.603,5.536,7.193,2,11.106,2c3.943,0,7.547,3.577,8.776,5.063
	C18.653,8.549,15.046,12.125,11.106,12.125z"/>
<g>
	<g>
		<g>
			<path fill="#CDCDCD" d="M12.888,7.063c0,0.982-0.799,1.781-1.781,1.781S9.325,8.045,9.325,7.063s0.799-1.782,1.781-1.782
				S12.888,6.081,12.888,7.063z M11.106,3.281c-2.085,0-3.781,1.696-3.781,3.782c0,2.083,1.696,3.781,3.781,3.781
				c2.084,0,3.782-1.697,3.782-3.781C14.888,4.978,13.19,3.281,11.106,3.281z"/>
		</g>
	</g>
</g>
</svg>
