<?xml version="1.0" encoding="utf-8"?>
<!-- Generator: Adobe Illustrator 12.0.0, SVG Export Plug-In . SVG Version: 6.00 Build 51448)  -->
<!DOCTYPE svg PUBLIC "-//W3C//DTD SVG 1.1//EN" "http://www.w3.org/Graphics/SVG/1.1/DTD/svg11.dtd" [
	<!ENTITY ns_svg "http://www.w3.org/2000/svg">
	<!ENTITY ns_xlink "http://www.w3.org/1999/xlink">
]>
<svg  version="1.1" id="Layer_1" xmlns="&ns_svg;" xmlns:xlink="&ns_xlink;" width="6.418" height="11.418"
	 viewBox="0 0 6.418 11.418" overflow="visible" enable-background="new 0 0 6.418 11.418" xml:space="preserve">
<polygon fill="#9A9A9A" points="6.418,5.707 5.711,5 5.709,5.002 0.707,0 0,0.707 5.002,5.709 0,10.711 0.707,11.418 5.709,6.416 
	5.711,6.418 6.418,5.711 6.416,5.709 "/>
</svg>
